<svg width="29" height="30" viewBox="0 0 29 30" fill="none" xmlns="http://www.w3.org/2000/svg">
<path fill-rule="evenodd" clip-rule="evenodd" d="M3 5.36946C3 4.11798 3.98071 3.10345 5.19048 3.10345H23.8095C25.0193 3.10345 26 4.11798 26 5.36946V24.6305C26 25.882 25.0193 26.8966 23.8095 26.8966H5.19048C3.98071 26.8966 3 25.882 3 24.6305V5.36946ZM5.19048 5.36946H23.8095V16.6995H16.1429V18.9655H23.8095V24.6305H5.19048V18.9655H12.8571V16.6995H5.19048L5.19048 5.36946Z" fill="#41559B"/>
</svg>
