<svg width="18" height="26" viewBox="0 0 18 26" fill="none" xmlns="http://www.w3.org/2000/svg">
<path fill-rule="evenodd" clip-rule="evenodd" d="M12.6597 0.292572C13.5953 0.743644 14.0799 1.77085 13.8221 2.75659L12.1091 9.30544H15.5817C16.4039 9.30544 17.1582 9.75001 17.5401 10.4596C17.922 11.1693 17.8684 12.0268 17.4009 12.686L8.66662 25.0011C8.06296 25.8522 6.92383 26.1652 5.95289 25.7466C4.98194 25.3281 4.4532 24.2962 4.69328 23.2883L6.47967 15.789H2.41836C1.57048 15.789 0.797236 15.3165 0.427836 14.5728C0.0584367 13.829 0.157923 12.9449 0.683939 12.2968L9.94471 0.887242C10.5923 0.0894075 11.7241 -0.1585 12.6597 0.292572ZM9.26329 13.6338L6.84743 23.7757L15.5817 11.4606H9.26329L11.6791 2.22426L2.41836 13.6338H9.26329Z" fill="#41559B"/>
</svg>
